{
"progressBar": [[0, "image/system/controls/progress-0.png"], [100, "image/system/controls/progress-100.png"]],
"votesNum-default": "image/system/number/%1.png",
"photoMainFrame": "image/fullskin/system/photo-back.png",
"photoHandCardNum": "image/fullskin/system/handcard.png",
"photoFaceTurnedMask": "image/fullskin/generals/faceturned.png",
"photoBlankGeneral": "image/fullskin/generals/blank.png",
"photoChain": "image/system/chain.png",
"photoPhase0": "image/system/phase/round_start.png",
"photoPhase1": "image/system/phase/start.png",
"photoPhase2": "image/system/phase/judge.png",
"photoPhase3": "image/system/phase/draw.png",
"photoPhase4": "image/system/phase/play.png",
"photoPhase5": "image/system/phase/discard.png",
"photoPhase6": "image/system/phase/finish.png",
"photoFocusFrame0": "image/system/frame/playing.png",
"photoFocusFrame1": "image/system/frame/responding.png",
"photoFocusFrame2": "image/system/frame/sos.png",
"photoFrameWhenSelected": "image/system/frame/photoSelected.png",
"dashboardLeftFrame": "image/system/dashboard-equip.png", 
"dashboardRightFrame": "image/system/dashboard-avatar.png",
"dashboardMiddleFrame": "image/system/dashboard-hand.png",
"dashboardHandCardNum": "image/fullskin/system/handcard.png",
"dashboardFaceTurnedMask": "image/generals/big/faceturned.png",
"dashboardBlankGeneral": "image/fullskin/generals/blank.png",
"dashboardChain": ["image/system/chain.png", [0, 0, 134, 19]],
"dashboardPhase0": "image/system/phase/round_start.png",
"dashboardPhase1": "image/system/phase/start.png",
"dashboardPhase2": "image/system/phase/judge.png",
"dashboardPhase3": "image/system/phase/draw.png",
"dashboardPhase4": "image/system/phase/play.png",
"dashboardPhase5": "image/system/phase/discard.png",
"dashboardPhase6": "image/system/phase/finish.png",
"dashboardFrameWhenSelected": "image/system/frame/dashboardSelected.png",
"magatamasBg0": "image/fullskin/system/magatamas/bg1.png",
"magatamasBg1": "image/fullskin/system/magatamas/bg1.png",
"magatamasBg2": "image/fullskin/system/magatamas/bg2.png",
"magatamasBg3": "image/fullskin/system/magatamas/bg3.png",
"magatamasBg4": "image/fullskin/system/magatamas/bg4.png",
"magatamasBg5": "image/fullskin/system/magatamas/bg5.png",
"magatamas0": "image/system/magatamas/0.png",
"magatamas1": "image/system/magatamas/1.png",
"magatamas2": "image/system/magatamas/2.png",
"magatamas3": "image/system/magatamas/3.png",
"magatamas4": "image/system/magatamas/4.png",
"magatamas5": "image/system/magatamas/5.png",
"photoExtraSkillBg": "image/system/huashenSkillBg.png",
"dashboardExtraSkillBg": "image/system/huashenSkillBg.png",
"tableBg": "image/system/tableBg.jpg",

// general default directories
"playerGeneralIcon-default-0": ["image/generals/avatar/%1.png", [71, 28, 134, 134], [40, 40]],
"playerGeneralIcon-default-1": ["image/fullskin/generals/full/%1.png", [0, 0, 250, 289], [155, 179]],
"playerGeneralIcon-default-2": ["image/generals/avatar/%1.png", [71, 28, 134, 134]],
"playerGeneralIcon-default-4": ["image/fullskin/generals/full/%1.png", [70, 0, 124, 289], [77, 179]], //small avatar for photo
"playerGeneralIcon-default-5": ["image/generals/avatar/%1.png", [71, 28, 134, 134], [70, 70]],  //small avatar for dashboard
"playerGeneralIcon-default-6": ["image/fullskin/generals/full/%1.png", [65, 0, 250, 289], [155, 179]],  //primary avatar for photo
"playerGeneralIcon-default-7": ["image/generals/avatar/%1.png", [71, 28, 134, 134]],  //primary avatar for dashboard
"playerGeneralIcon-default-8": ["image/generals/avatar/%1.png", [16, 49, 244, 100], [122, 50]],  //avatar for KOF mode

"generalCircleImage-0": "image/fullskin/generals/circle-photo.png",
"generalCircleImage-1": "image/generals/double-general/circle-dashboard.png",

"generalCircleMask-0": "deprecated",
"generalCircleMask-1": ["image/generals/double-general/circle-dashboard-mask.png", [73, 0, 71, 71]],

// generals defined later will override default path and also previously defined generals
"playerGeneralIcon-anjiang-0": ["image/generals/big/anjiang.png", [0, 0, 134, 134], [40, 40]],
"playerGeneralIcon-anjiang-2": "image/generals/big/anjiang.png",
"playerGeneralIcon-anjiang-4": ["image/fullskin/generals/full/anjiang.png", [63, 0, 124, 289], [77, 179]],
"playerGeneralIcon-anjiang-5": ["image/generals/big/anjiang.png", [0, 0, 134, 134], [70, 70]],
"playerGeneralIcon-anjiang-6": ["image/fullskin/generals/full/anjiang.png", [63, 0, 250, 289], [155, 179]], 
"playerGeneralIcon-anjiang-7": "image/generals/big/anjiang.png",
"playerGeneralIcon-anjiang-8": "image/generals/kof/anjiang.png",

"playerGeneralIcon-yanliangwenchou-0": ["image/generals/big/yanliangwenchou.png", [0, 0, 134, 134], [40, 40]],
"playerGeneralIcon-yanliangwenchou-2": "image/generals/big/yanliangwenchou.png",
"playerGeneralIcon-yanliangwenchou-4": ["image/fullskin/generals/fulldual/yanliangwenchou.png", [0, 0, 124, 289], [77, 179]],
"playerGeneralIcon-yanliangwenchou-5": ["image/generals/big/yanliangwenchou.png", [0, 0, 134, 134], [70, 70]],
"playerGeneralIcon-yanliangwenchou-6": ["image/fullskin/generals/fulldual/yanliangwenchou.png", [0, 0, 250, 289], [155, 179]],
"playerGeneralIcon-yanliangwenchou-7": "image/generals/big/yanliangwenchou.png",
"playerGeneralIcon-yanliangwenchou-8": "image/generals/kof/yanliangwenchou.png",

"playerGeneralIcon-erzhang-0": ["image/generals/big/erzhang.png", [0, 0, 134, 134], [40, 40]],
"playerGeneralIcon-erzhang-2": "image/generals/big/erzhang.png",
"playerGeneralIcon-erzhang-4": ["image/fullskin/generals/fulldual/erzhang.png", [0, 0, 124, 289], [77, 179]],
"playerGeneralIcon-erzhang-5": ["image/generals/big/erzhang.png", [0, 0, 134, 134], [70, 70]],
"playerGeneralIcon-erzhang-6": ["image/fullskin/generals/fulldual/erzhang.png", [0, 0, 250, 289], [155, 179]],
"playerGeneralIcon-erzhang-7": "image/generals/big/erzhang.png",
"playerGeneralIcon-erzhang-8": "image/generals/kof/erzhang.png",

"playerGeneralIcon-guanxingzhangbao-0": ["image/generals/big/guanxingzhangbao.png", [0, 0, 134, 134], [40, 40]],
"playerGeneralIcon-guanxingzhangbao-2": "image/generals/big/guanxingzhangbao.png",
"playerGeneralIcon-guanxingzhangbao-4": ["image/fullskin/generals/fulldual/guanxingzhangbao.png", [0, 0, 124, 289], [77, 179]],
"playerGeneralIcon-guanxingzhangbao-5": ["image/generals/big/guanxingzhangbao.png", [0, 0, 134, 134], [70, 70]],
"playerGeneralIcon-guanxingzhangbao-6": ["image/fullskin/generals/fulldual/guanxingzhangbao.png", [0, 0, 250, 289], [155, 179]],
"playerGeneralIcon-guanxingzhangbao-7": "image/generals/big/guanxingzhangbao.png",
"playerGeneralIcon-guanxingzhangbao-8": "image/generals/kof/guanxingzhangbao.png",

"playerGeneralIcon-panzhangmazhong-0": ["image/generals/big/panzhangmazhong.png", [0, 0, 134, 134], [40, 40]],
"playerGeneralIcon-panzhangmazhong-2": "image/generals/big/panzhangmazhong.png",
"playerGeneralIcon-panzhangmazhong-4": ["image/fullskin/generals/fulldual/panzhangmazhong.png", [0, 0, 124, 289], [77, 179]],
"playerGeneralIcon-panzhangmazhong-5": ["image/generals/big/panzhangmazhong.png", [0, 0, 134, 134], [70, 70]],
"playerGeneralIcon-panzhangmazhong-6": ["image/fullskin/generals/fulldual/panzhangmazhong.png", [0, 0, 250, 289], [155, 179]],
"playerGeneralIcon-panzhangmazhong-7": "image/generals/big/panzhangmazhong.png",
"playerGeneralIcon-panzhangmazhong-8": "image/generals/kof/panzhangmazhong.png",

"playerGeneralIcon-erqiao-0": ["image/generals/big/erqiao.png", [0, 0, 134, 134], [40, 40]],
"playerGeneralIcon-erqiao-2": "image/generals/big/erqiao.png",
"playerGeneralIcon-erqiao-4": ["image/fullskin/generals/fulldual/erqiao.png", [0, 0, 124, 289], [77, 179]],
"playerGeneralIcon-erqiao-5": ["image/generals/big/erqiao.png", [0, 0, 134, 134], [70, 70]],
"playerGeneralIcon-erqiao-6": ["image/fullskin/generals/fulldual/erqiao.png", [0, 0, 250, 289], [155, 179]],
"playerGeneralIcon-erqiao-7": "image/generals/big/erqiao.png",
"playerGeneralIcon-erqiao-8": "image/generals/kof/erqiao.png",

"playerGeneralIcon-nos_guanxingzhangbao-0": ["image/generals/big/nos_guanxingzhangbao.png", [0, 0, 134, 134], [40, 40]],
"playerGeneralIcon-nos_guanxingzhangbao-2": "image/generals/big/nos_guanxingzhangbao.png",
"playerGeneralIcon-nos_guanxingzhangbao-4": ["image/fullskin/generals/fulldual/nos_guanxingzhangbao.png", [0, 0, 124, 289], [77, 179]],
"playerGeneralIcon-nos_guanxingzhangbao-5": ["image/generals/big/nos_guanxingzhangbao.png", [0, 0, 134, 134], [70, 70]],
"playerGeneralIcon-nos_guanxingzhangbao-6": ["image/fullskin/generals/fulldual/nos_guanxingzhangbao.png", [0, 0, 250, 289], [155, 179]],
"playerGeneralIcon-nos_guanxingzhangbao-7": "image/generals/big/nos_guanxingzhangbao.png",
"playerGeneralIcon-nos_guanxingzhangbao-8": "image/generals/kof/nos_guanxingzhangbao.png",

// buttons
"dashboardButtonSetBg": "image/system/button/platter/bg.png",
"button-platter": "image/system/button/platter/%1/%2.png",
"button-skill": "image/system/button/skill/%1/%3-%2.png",
"button-handcard": "image/system/button/handcard/%1/%2.png",
"button-replay": "image/system/button/replay/%1/%2.png",

// icons
"saveMe": "image/system/death/save-me.png",
"playerActioned": "image/system/3v3/actioned.png",
"playerReady": "image/system/ready.png",
// card relevant
"handCardBack": "image/system/card-back.png",
"generalCardBack": "image/system/unknown.png",

// equips
"photoEquip-default": "image/fullskin/small-equips/%1.png",
"dashboardEquip-default": "image/equips/%1.png",

// kingdoms
"kingdomColorMask-default": "image/kingdom/frame/%1.png",
"kingdomIcon-default": "image/kingdom/icon/%1.png",

// cards
"handCardMainPhoto-default": "image/card/%1.jpg",
"handCardMainPhoto-default2": "image/generals/card/%1.jpg",
"handCardMainPhoto-unknown": "image/system/card-back.png",

"handCardNumber-black-default": "image/system/black/%1.png",
"handCardNumber-red-default": "image/system/red/%1.png",
"handCardSuit-default": "image/system/cardsuit/%1.png",
"judgeCardIcon-default": "image/icon/%1.png"
}
